406 1694
414 1462
368 1364
350 1282
498 1338
1238 1602
1244 1598
1142 1350
348 340
702 650
794 480
836 106
1188 900
1340 1172
1362 1138
1494 576
1552 820
1582 572
1584 804
1862 358
1978 392
2088 200
1708 1388
1860 1200
2452 320
2642 130
2944 1262
1872 1738
2548 1898
2284 1938
2830 1994
2912 2052
2414 2088
2302 2172
2622 2356
2466 2292
2448 2404
2116 2478
2194 2832
2072 2702
2100 2956
1896 2610
1636 2870
1570 2210
1362 2910
274 2848
354 2432
154 2470
288 2118
532 2014
